info face="Arial" size=32 bold=0 italic=0 charset="" unicode=1 stretchH=100 smooth=1 aa=1 padding=0,0,0,0 spacing=1,1 outline=0
common lineHeight=32 base=26 scaleW=256 scaleH=128 pages=1 packed=0 alphaChnl=1 redChnl=0 greenChnl=0 blueChnl=0
page id=0 file="fatal_0.png"
chars count=11
char id=45   x=0     y=0     width=44    height=49    xoffset=-3    yoffset=0     xadvance=41    page=0  chnl=15
char id=48   x=120   y=50    width=38    height=49    xoffset=-3    yoffset=0     xadvance=35    page=0  chnl=15
char id=49   x=159   y=50    width=27    height=49    xoffset=-3    yoffset=0     xadvance=24    page=0  chnl=15
char id=50   x=169   y=0     width=39    height=49    xoffset=-3    yoffset=0     xadvance=36    page=0  chnl=15
char id=51   x=87    y=0     width=40    height=49    xoffset=-3    yoffset=0     xadvance=37    page=0  chnl=15
char id=52   x=45    y=0     width=41    height=49    xoffset=-3    yoffset=0     xadvance=38    page=0  chnl=15
char id=53   x=209   y=0     width=39    height=49    xoffset=-3    yoffset=0     xadvance=36    page=0  chnl=15
char id=54   x=0     y=50    width=39    height=49    xoffset=-3    yoffset=0     xadvance=36    page=0  chnl=15
char id=55   x=40    y=50    width=39    height=49    xoffset=-3    yoffset=0     xadvance=36    page=0  chnl=15
char id=56   x=128   y=0     width=40    height=49    xoffset=-3    yoffset=0     xadvance=37    page=0  chnl=15
char id=57   x=80    y=50    width=39    height=49    xoffset=-3    yoffset=0     xadvance=36    page=0  chnl=15
